<?php

use Lib\Arr;

/**
 * Model to operate to News_Feeds's functions.
 *
 * @package Model
 * @version 1.0
 * @author diennvt
 * @copyright Oceanize INC
 */
class Model_News_Feed extends Model_Abstract {

    const ORDER_HOT_TOPIC = 1;
    const ORDER_TIMELINE = 2;
    const ORDER_ALL = 3;
    const ORDER_CATEGORY = 4;
    const COMMENTS_NUM = 4;
    const FEED_DAY_PERIOD = 100;
    const COMMENT_LIMIT_GUEST = 5;
    const COMMENT_LIMIT_MEMBER = 50;

    protected static $_properties = array(
        'id',
        'news_site_id',
        'title',
        'short_content',
        'detail_url',
        'likes_count',
        'comments_count',
        'image_url',
        'distribution_date',
        'favorite_count',
        'disable',
        'created',
        'updated',
        'short_url',
        'news_site_name'
    );
    protected static $_observers = array(
        'Orm\Observer_CreatedAt' => array(
            'events' => array('before_insert'),
            'mysql_timestamp' => false,
        ),
        'Orm\Observer_UpdatedAt' => array(
            'events' => array('before_update'),
            'mysql_timestamp' => false,
        ),
    );
    protected static $_table_name = 'news_feeds';

    /**
     * Function to get a list of News_Feeds.
     *
     * @author diennvt
     * @param array $param Input data.
     * @return array Returns array(total, data).
     */
    public static function get_list($param) {

        $page = !empty($param['page']) ? $param['page'] : 1;
        $limit = !empty($param['limit']) ? $param['limit'] : 1;
        $offset = ($page - 1) * $limit;

        $query = DB::select(
                'news_feeds.id', 
                array('news_feeds.id', 'news_feed_id'), 
                'title', 
                'short_content', 
                'likes_count', 
                'comments_count', 
                'favorite_count', 
                'short_url', 
                'detail_url', 
                'distribution_date', 
                'news_feeds.created', 
                'news_feeds.updated', 
                'news_feeds.disable', 
                DB::expr("IFNULL(IF(news_feeds.image_url='',NULL,news_feeds.image_url),IFNULL(IF(news_sites.thumbnail_img='',NULL,news_sites.thumbnail_img), '" . \Config::get('no_image_other') . "')) AS image_url"), 
                'news_site_id', 
                DB::expr("IF(news_feeds.news_site_id IS NOT NULL AND news_feeds.news_site_id <> 0, news_sites.name, news_feeds.news_site_name) AS site_name") 
            )
            ->from('news_feeds')
            ->join('news_sites', 'LEFT')
            ->on('news_feeds.news_site_id', '=', 'news_sites.id')
            ->limit($limit)
            ->offset($offset);
        
        if (!empty($param['tag_id'])) {
            if ($param['tag_id'] == -1) {
                $query->where(DB::expr("NOT EXISTS  (select news_feed_id from news_feed_tags where news_feeds.id = news_feed_tags.news_feed_id "
                                . "AND news_feed_tags.disable = 0)"));
            } elseif ($param['tag_id'] == 'all'){
                $query->join('news_feed_tags')
                    ->on('news_feeds.id', '=', 'news_feed_tags.news_feed_id')
                    ->where('news_feed_tags.disable', '=', 0);
            } else {
                $query->join('news_feed_tags')
                        ->on('news_feeds.id', '=', 'news_feed_tags.news_feed_id')
                        ->where('news_feed_tags.tag_id', '=' ,$param['tag_id'])
                        ->where('news_feed_tags.disable', '=', 0);
            }
        }

        if (isset($param['news_site_id']) && $param['news_site_id'] != '') {
            $query->where('news_feeds.news_site_id', $param['news_site_id']);
        }

        if (!empty($param['title'])) {
            $query->where('news_feeds.title', 'LIKE', "%{$param['title']}%");
        }

        if (!empty($param['short_content'])) {
            $query->where('news_feeds.short_content', 'LIKE', "{$param['short_content']}%");
        }

        if (!empty($param['detail_url'])) {
            $query->where('news_feeds.detail_url', $param['detail_url']);
//          $_shorURL = \Lib\Util::getShortUrl($param['detail_url']);
//          $query->where('news_feeds.short_url',$_shorURL);
        }

        if (isset($param['likes_count'])) {
            $query->where('news_feeds.likes_count', $param['likes_count']);
        }

        if (isset($param['comments_count'])) {
            $query->where('news_feeds.comments_count', $param['comments_count']);
        }

        if (isset($param['disable']) && $param['disable'] != '') {
            $query->where('news_feeds.disable', $param['disable']);
        }
        
        if (!empty($param['category_id'])) {
           if($param['category_id'] == -1){
                $query->where( DB::expr("NOT EXISTS  (select news_feed_id from news_feed_categories where news_feeds.id = news_feed_categories.news_feed_id "
                        . "AND news_feed_categories.disable = 0)"));
           }else{
               $query->where( DB::expr("EXISTS  (select news_feed_id from news_feed_categories where news_feeds.id = news_feed_categories.news_feed_id "
                       . "AND news_feed_categories.category_id = {$param['category_id']} AND news_feed_categories.disable = 0)"));
           }
        }        
        if (empty($param['admin_id'])) {                
            $query->where(DB::expr("(news_sites.disable = 0 OR IFNULL(news_feeds.news_site_id, 0) = 0)"));           
        }
        if (!empty($param['sort'])) {
            $sortExplode = explode('-', $param['sort']);
            if ($sortExplode[0] == 'created') {
                $sortExplode[0] = self::$_table_name . '.created';
            }
            $query->order_by($sortExplode[0], $sortExplode[1]);
        } else {
            $query->order_by(self::$_table_name . '.created', 'DESC');
        }

        $data = $query->execute()->as_array();
        $total = !empty($data) ? DB::count_last_query() : 0;
        // If has param 'full' => Get more list UserComment
        if (isset($param['full'])) {
            $newsFeedId = \Lib\Arr::field($data, 'id');
            $listComment = self::get_list_comments($newsFeedId); //d($listComment,1);            
            foreach ($data as &$item) {
                $item['listUser'] = \Lib\Arr::filter($listComment, 'feed_id', $item['id'], true);
            }
        }
        // get more tag info for news feed
        $tagArray = Model_News_Feed_Tag::get_all();
        foreach ($data as &$item) {
            $item['tags'] = Arr::filter($tagArray, 'news_feed_id', $item['id']);
        }

        return array($total, $data);
    }
     /**
     * Function to get a list of User_comment.
     *
     * @author diennvt
     * @param array $param Input data.
     * @throws Exception If the provided is not of type array.
     * @return array Returns array(total, data).
     */
    protected static function get_list_user_comments($param) {
        try {
            $query = DB::select(
                    array('users.id', 'user_id'), 'users.name', DB::expr("IFNULL(IF(users.image_url='',NULL,users.image_url),'" . \Config::get('no_image_user') . "') AS image_url")
                )
                ->from('news_comments')
                ->join('users')
                ->on('news_comments.user_id', '=', 'users.id')
                ->group_by('users.id', 'users.name', 'users.image_url')
                ->where('news_comments.disable', 0);
            if (!empty($param['news_feed_id'])) {
                $query->where('news_comments.news_feed_id', '=', $param['news_feed_id']);
            }
            if (!empty($param['news_site_id'])) {
                $query->where('news_comments.news_site_id', '=', $param['news_site_id']);
            }
            $data = $query->execute()->as_array();
            $total = !empty($data) ? DB::count_last_query() : 0;
            return array($total, $data);
        } catch (Exception $exc) {
            return $exc->getMessage();
        }
    }
     /**
     * Function to get a list of comment.
     *
     * @author diennvt
     * @param array $param Input data.
     * @throws Exception If the provided is not of type array.
     * @return array Returns array(total, data).
     */
    protected static function get_list_comments($param) {
        try {
            $no_image_user = \Config::get('no_image_user');
            $no_image_company = \Config::get('no_image_company');
            $query = DB::select(
                    array('users.id', 'user_id'), 'users.name', array('news_comments.news_feed_id', 'feed_id'), 'news_comments.company_id', DB::expr("IF(news_comments.company_id > 0,
                        IFNULL(IF(companies.thumbnail_img='',NULL,companies.thumbnail_img),'{$no_image_company}'),
                        IFNULL(IF(users.image_url='',NULL,users.image_url),'{$no_image_user}')) AS display_image ")
                )
                ->from('news_comments')
                ->join('users')
                ->on('news_comments.user_id', '=', 'users.id')
                ->join('companies', 'left')
                ->on('news_comments.company_id', '=', 'companies.id')
                ->group_by('news_comments.news_feed_id', 'news_comments.user_id')
                ->where('news_comments.disable', 0);
            if (!empty($param)) {
                $query->where('news_comments.news_feed_id', 'in', $param);
            }
            $data = $query->execute()->as_array();
            return !empty($data) ? $data : array();
        } catch (Exception $exc) {
            return $exc->getMessage();
        }
    }

    /**
     * Function to disable or enable a News_Feed.
     *
     * @author diennvt
     * @param array $param Input data.
     * @return bool Returns the boolean.
     */
    public static function disable($param) {
        if (empty($param['id'])) {
            return false;
        }
        $ids = explode(',', $param['id']);
        foreach ($ids as $id) {
            $newsfeed = self::find($id);
            $newsfeed->set('disable', $param['disable']);
            if (!$newsfeed->update()) {
                return false;
            }
            Model_Tag::update_counter_by_news_feed($id);
        }
        return true;
    }

    /**
     * Function to add or update a News_Feed.
     *
     * @author diennvt
     * @param array $param Input data.
     * @return int|bool Returns the integer or the boolean.
     */
    public static function add_update($param) {
        //check id if existing
        $id = !empty($param['id']) ? $param['id'] : 0;
        $newsfeed = new self;
        if (!empty($id)) {
            $newsfeed = self::find($id);
            if (empty($newsfeed)) {
                static::errorNotExist('news_feed_id', $param['id']);
                return false;
            }
        }
        if (!empty($param['detail_url'])) {
            $options['where'] = array(
                'detail_url'=> $param['detail_url']
            );
            $newsfeed = self::find('first', $options);
            if (!empty($newsfeed)) {
                static::errorDuplicate('detail_url', $param['detail_url']);
                return false;
            }else
                $newsfeed = new self;
        }
        // set information for subcategory if having
        if (!empty($param['news_site_id'])) {
            $newsfeed->set('news_site_id', $param['news_site_id']);
        }

        if (!empty($param['title'])) {
            $newsfeed->set('title', $param['title']);
        }

        if (!empty($param['short_content'])) {
            $newsfeed->set('short_content', $param['short_content']);
        }

        if (!empty($param['detail_url'])) {
            $newsfeed->set('detail_url', $param['detail_url']);
            $newsfeed->set('short_url', \Lib\Util::getShortUrl($param['detail_url']));
        }

        if (isset($param['image_url'])) {
            //$newsfeed->set('image_url', $param['image_url']);
            $image_url = $param['image_url'];
            if (!\Lib\Util::url_exists($image_url))
                $image_url = "";
            $newsfeed->set('image_url', $image_url);
        }

        if (!empty($param['distribution_date'])) {
            $newsfeed->set('distribution_date', $param['distribution_date']);
        }

        if (isset($param['favorite_count'])) {
            $newsfeed->set('favorite_count', $param['favorite_count']);
        }
        if (isset($param['favorite_count'])) {
            $newsfeed->set('favorite_count', $param['favorite_count']);
        }
        if (isset($param['likes_count'])) {
            $newsfeed->set('likes_count', $param['likes_count']);
        }
        if (isset($param['disable'])) {
            $newsfeed->disable = $param['disable'];
        }

        if (isset($param['comments_count'])) {
            $newsfeed->set('comments_count', $param['comments_count']);
        }
        if (isset($param['news_site_name'])) {
            $newsfeed->set('news_site_name', $param['news_site_name']);
            $newsfeed->set('news_site_id', 0);
            $newsfeed->set('distribution_date', time());
            if (empty($param['news_site_name'])) {
                $newsfeed->disable = 1;
            }
        }
        //check id for adding new or updating
        if ($newsfeed->save()) {
            if (empty($newsfeed->id)) {
                $newsfeed->id = self::cached_object($newsfeed)->_original['id'];
            }
            // Save to news_feed_import_logs if $param['news_site_name'] not empty
            if (!empty($param['news_site_name'])) {
                $newsfeed_importLogid = \Model_News_Feed_Import_Log::add_update(array(
                        'detail_url' => $newsfeed->detail_url,
                        'detail_url_md5' =>md5($newsfeed->detail_url),
                        'news_feed_id' => $newsfeed->id,
                        'status' => !empty($newsfeed->short_url) ? 1 : 2
                ));
            }
            return !empty($newsfeed->id) ? $newsfeed->id : 0;
        }
        return false;
    }

    /**
     * Get news site id by news feed id
     * (use in Model_News_Feed_Like and Model_News_Feed_Favorites).
     *
     * @author Le Tuan Tu
     * @param array $param Input data.
     * @return array Returns the array.
     */
    public static function get_news_site_id($param) {
        $query = DB::select('news_site_id')->from(self::$_table_name);
        if (!empty($param['news_feed_id'])) {
            $query->where('id', '=', $param['news_feed_id']);
        }
        if (isset($param['disable']) && $param['disable'] != '') {
            $query->where('disable', '=', $param['disable']);
        }
        $data = $query->execute()->as_array();
        return $data;
    }

    /**
     * Function to get info of News_Feeds.
     *
     * @author diennvt
     * @param array $param Input param(user_id, order).
     * @return array Returns array(total, data).
     */
    public static function mobile_get_list($param) {
        $data = self::mobile_get_feed_info($param);
        if (empty($data[0])) {
            return array(
                'total' => 0,
                'data' => array(),
            );
        }
        if (!\Lib\Util::isMobile() && !isset($param['debug'])) {
            return array(
                'total' => !empty($data[0]) ? $data[0] : 0,
                'data' => !empty($data[1]) ? $data[1] : array(),
            );
        }
        $user_id = !empty($param['user_id']) ? $param['user_id'] : 0;       
        $newsFeedIds = \Lib\Arr::field($data[1], 'news_feed_id', true);        
        $follow_comment_array = self::mobile_get_following_comments_2($user_id, $newsFeedIds);
        $other_comment_array = self::mobile_get_others_comments_2($user_id, $newsFeedIds);
        foreach ($data[1] as $key => $info) {
            $follow_comments = \Lib\Arr::filter($follow_comment_array, 'news_feed_id', $info['news_feed_id']);
            $other_comments = \Lib\Arr::filter($other_comment_array, 'news_feed_id', $info['news_feed_id']);
            $all_comments = array_merge($follow_comments, $other_comments);
            //check if there is the same user/company comment, then just display 1                
            $unique_comments = array();
            foreach ($all_comments as $comment) {
                if (\Lib\Arr::search($unique_comments, 'company_id', $comment['company_id']) === false) {
                    $unique_comments[] = $comment;
                }                    
            }
            //get some best comments from all
            $other_user_comment_count = count($unique_comments) - self::COMMENTS_NUM;
            $data[1][$key]['other_user_comment_count'] = ($other_user_comment_count > 0) ? $other_user_comment_count : 0;
            $data[1][$key]['best_comments'] = array_slice($unique_comments, 0, self::COMMENTS_NUM);
        }
        return array(
            'total' => !empty($data[0]) ? $data[0] : 0,
            'data' => !empty($data[1]) ? $data[1] : array(),
        );        
    }

    /**
     * Function to get sub information of News_Feeds.
     *
     * @author diennvt
     * @param array $param Input data.
     * @return array Returns array(total, data).
     */
    public static function mobile_get_feed_info($param) {

        $query = DB::select(
            DB::expr("DISTINCT news_feeds.id AS news_feed_id"), 
            'news_feeds.title', 
            DB::expr("IFNULL(IF(news_feeds.image_url='',NULL,news_feeds.image_url),IFNULL(IF(news_sites.thumbnail_img='',NULL,news_sites.thumbnail_img), '" . \Config::get('mobile_no_image_other') . "')) AS image_url"), 
            'news_feeds.distribution_date', 
            'news_feeds.short_content', 
            'news_feeds.likes_count',    
            'news_feeds.comments_count',    
            'news_feeds.favorite_count',  
            'news_feeds.short_url',     
            'news_feeds.detail_url', 
            'news_feeds.created',   
            'news_feeds.updated',
            'news_feeds.disable', 
            DB::expr("IF(news_feeds.news_site_id IS NOT NULL AND news_feeds.news_site_id <> 0, news_sites.name, news_feeds.news_site_name) AS site_name"),    
            array('news_sites.id', 'news_site_id'), 
            DB::expr("DATEDIFF(NOW(), FROM_UNIXTIME(news_feeds.created)) as within_day"),
            DB::expr("IF(ISNULL(news_feed_favorites.id), 0, 1) as is_favorite"))
            ->from('news_feeds')
            ->join('news_sites', 'LEFT')
            ->on('news_sites.id', '=', 'news_feeds.news_site_id')
            ->join(DB::expr("(SELECT * FROM news_feed_favorites WHERE user_id='{$param['user_id']}' AND disable = 0) AS news_feed_favorites"), 'LEFT')
            ->on('news_feed_favorites.news_feed_id', '=', 'news_feeds.id')            
            ->where('news_feeds.disable', '0')
            ->where('news_feeds.comments_count', '>', '0');

        //set order for navi menu
        if (!empty($param['order'])) {
            switch ($param['order']) {
                case self::ORDER_HOT_TOPIC:
                    $query->join(DB::expr("(SELECT news_feed_id, max(like_count) AS clap_count FROM news_comments WHERE disable = 0 GROUP BY news_feed_id) AS news_comments"), 'LEFT');
                    $query->on('news_comments.news_feed_id', '=', 'news_feeds.id');  
                    $query->having('within_day', '<=', self::FEED_DAY_PERIOD);
                    $query->order_by('news_comments.clap_count', 'DESC');
                    break;
                case self::ORDER_TIMELINE:
                    $query->join(DB::expr("(SELECT news_feed_id, max(created) AS created FROM news_comments WHERE disable = 0 GROUP BY news_feed_id) AS news_comments"), 'LEFT');
                    $query->on('news_comments.news_feed_id', '=', 'news_feeds.id');                        
                    $query->join("news_feed_categories");
                    $query->on('news_feeds.id', '=', 'news_feed_categories.news_feed_id');
                    $query->where(DB::expr("
                            news_feed_categories.category_id IN 
                            (   SELECT category_id 
                                FROM follow_categories 
                                WHERE user_id={$param['user_id']}
                                AND disable=0
                            )"
                        )
                    );
                    $query->order_by('news_comments.created', 'DESC');
                    break;
                case self::ORDER_ALL:
                    $query->join(DB::expr("(SELECT news_feed_id, max(created) AS created FROM news_comments WHERE disable = 0 GROUP BY news_feed_id) AS news_comments"), 'LEFT');
                    $query->on('news_comments.news_feed_id', '=', 'news_feeds.id'); 
                    $query->order_by('news_comments.created', 'DESC');
                    break;
                case self::ORDER_CATEGORY:
                    // TODO: phase 2
                    break;
                default:
                    $query->order_by('news_feeds.updated', 'DESC');
                    break;
            }
        }
        //get feed by id
        if (!empty($param['news_feed_id'])) {
            $query->where('news_feeds.id', $param['news_feed_id']);
        }
        if (!\Lib\Util::isMobile()) {
            if (!empty($param['title'])) {
                $query->where('news_feeds.title', 'LIKE', "{$param['title']}%");
            }
            if (isset($param['news_site_id']) && $param['news_site_id'] != '') {
                $query->where('news_feeds.news_site_id', $param['news_site_id']);
            }
            if (!empty($param['tag_id'])) {
                if ($param['tag_id'] == -1) {
                    $query->where(DB::expr("NOT EXISTS  (select news_feed_id from news_feed_tags where news_feeds.id = news_feed_tags.news_feed_id "
                                    . "AND news_feed_tags.disable = 0)"));
                } else {
                    $query->join('news_feed_tags')
                            ->on('news_feeds.id', '=', 'news_feed_tags.news_feed_id')
                            ->where('news_feed_tags.tag_id', $param['tag_id'])
                            ->where('news_feed_tags.disable', 0);
                }
            }
            if (!empty($param['category_id'])) {
                if ($param['category_id'] == -1) {
                    $query->where(DB::expr("NOT EXISTS  (select news_feed_id from news_feed_categories where news_feeds.id = news_feed_categories.news_feed_id "
                                    . "AND news_feed_categories.disable = 0)"));
                } else {
                    $query->where(DB::expr("EXISTS  (select news_feed_id from news_feed_categories where news_feeds.id = news_feed_categories.news_feed_id "
                                    . "AND news_feed_categories.category_id = {$param['category_id']} AND news_feed_categories.disable = 0)"));
                }
            }
        }
        //paging
        if (!empty($param['page']) && !empty($param['limit'])) {
            $offset = ($param['page'] - 1) * $param['limit'];
            $query->limit($param['limit'])->offset($offset);
        }
        $query->where(DB::expr("(news_sites.disable = 0 OR IFNULL(news_feeds.news_site_id, 0) = 0)"));
        $data = $query->execute()->as_array();
        $total = !empty($data) ? DB::count_last_query() : 0;
        
        if (!\Lib\Util::isMobile()) {
            // If has param 'full' => Get more list UserComment
            if (isset($param['full'])) {
                $newsFeedId = \Lib\Arr::field($data, 'news_feed_id');
                $listComment = self::get_list_comments($newsFeedId); 
                foreach ($data as &$item) {
                    $item['listUser'] = \Lib\Arr::filter($listComment, 'feed_id', $item['news_feed_id'], true);
                }
            }
            // get more tag info for news feed        
            $tagArray = Model_News_Feed_Tag::get_all();
            foreach ($data as &$item) {
                $item['tags'] = Arr::filter($tagArray, 'news_feed_id', $item['news_feed_id']);
            }
        }        
        return array($total, $data);
    }

    /**
     * Function to get sub information of News_Feeds.
     *
     * @author diennvt
     * @param array $param Input data.
     * @return array Return the array.
     */
    public static function mobile_get_best_comments($user_id, $info) {
        $follow_comments = self::mobile_get_following_comments($user_id, $info);
        $other_comments = self::mobile_get_others_comments($user_id, $info);
        $all_comments = array_merge($follow_comments, $other_comments);
        //check if there is the same user/company comment, then just display 1
        $count = 0;
        $unique_comments = array();
        foreach ($all_comments as $comment) {
            if (empty($unique_comments)) {
                $unique_comments[] = $comment;
                $count = $count + 1;
                continue;
            }
            $isExist = false;
            foreach ($unique_comments as $u_comment) {
                if ($comment['user_id'] == $u_comment['user_id']) {
                    $isExist = true;
                    break;
                }
            }
            if ($isExist == true) {
                continue;
            } else {
                $unique_comments[] = $comment;
                $count = $count + 1;
            }
        }
        //get some best comments from all
        $other_user_comment_count = count($unique_comments) - self::COMMENTS_NUM;
        $data['other_user_comment_count'] = ($other_user_comment_count > 0) ? $other_user_comment_count : 0;
        $data['best_comments'] = array_slice($unique_comments, 0, self::COMMENTS_NUM);
        return !empty($data) ? $data : array();
    }

    /**
     * Function to get detail information of News_Feeds.
     *
     * @author diennvt
     * @param array $param Input param(user_id, news_feed_id).
     * @return array Returns an array(total, array).
     */
    public static function mobile_get_detail($param) {
        $data = self::mobile_get_feed_info($param);
        $user_id = !empty($param['user_id']) ? $param['user_id'] : 0;
        if ($user_id == 0) { // user guest
            $comment_limit = self::COMMENT_LIMIT_GUEST;
        } else {// user member
            $comment_limit = self::COMMENT_LIMIT_MEMBER;
        }
        if (isset($data) && !empty($data[1][0])) {
            $data[1][0]['following_company_comments'] = self::mobile_get_following_comments($user_id, $data[1][0], 1, $comment_limit);
            $data[1][0]['others_comments'] = self::mobile_get_others_comments($user_id, $data[1][0], 1, $comment_limit);
        }
        return !empty($data[0]) ? $data[1][0] : array();
    }

    /**
     * Function to get sub detail information of News_Feeds.
     *
     * @author diennvt
     * @param array $param Input data.
     * @return array Returns the array.
     */
    public static function mobile_get_following_comments($user_id, $info, $page = 1, $limit = 10) {

        $offset = ($page - 1) * $limit;

        $sql = "SELECT  DISTINCT A.id, 
                        A.news_feed_id, 
                        companies.id as company_id,
                        IFNULL(IF(companies.thumbnail_img='',NULL,companies.thumbnail_img),'" . \Config::get('mobile_no_image_company') . "') AS thumbnail_img,
                        companies.name, A.comment, 
                        A.comment_short, A.like_count,
                        A.created, 
                        A.disable,
                        users.is_company,
                        A.user_id,
                        IFNULL((SELECT COUNT(news_comment_id)
                         FROM news_comment_likes 
                         WHERE disable = 0 AND news_comment_id = A.id AND user_id = {$user_id} 
                         GROUP BY user_id),0) AS clap_num
                    FROM 
                    (                      
                        SELECT nc.*
                        FROM news_comments nc
                        WHERE nc.user_id in
                        (
                                SELECT ur.user_id
                                FROM user_recruiters ur
                                WHERE ur.company_id in
                                        (SELECT fc.company_id
                                        FROM follow_companies fc
                                        WHERE fc.user_id ={$user_id} )
                        )                        
                    ) AS A 
                    JOIN user_recruiters ON (A.user_id = user_recruiters.user_id)
                    JOIN companies ON (user_recruiters.company_id = companies.id)
                    JOIN users ON (user_recruiters.user_id = users.id)
                    WHERE A.news_feed_id = {$info['news_feed_id']}
                    AND A.disable = 0
                    AND companies.disable = 0 
                    AND user_recruiters.disable = 0
                    ORDER BY A.like_count DESC
                    LIMIT {$offset},{$limit}";

        $query = DB::query($sql);
        $data = $query->execute()->as_array();
        return !empty($data) ? $data : array();
    }

    /**
     * Function to get sub detail information of News_Feeds.
     *
     * @author diennvt
     * @param array $param Input data.
     * @return array Return the array.
     */
    public static function mobile_get_others_comments($user_id, $info, $page = 1, $limit = 10) {

        $offset = ($page - 1) * $limit;

        $sql = "SELECT DISTINCT news_comments.* ,
                       IFNULL((SELECT COUNT(news_comment_id)
                         FROM news_comment_likes 
                         WHERE disable = 0 AND news_comment_id = news_comments.id AND user_id = {$user_id} 
                         GROUP BY user_id),0) AS clap_num
                       FROM
                    ((
                     SELECT news_comments.id, 
                     news_comments.news_feed_id,
                     null as company_id,
                     IFNULL(IF(users.image_url='',NULL,users.image_url),'" . \Config::get('no_image_user') . "') AS thumbnail_img,
                     users.name,  
                     news_comments.comment,
                     news_comments.comment_short,
                     news_comments.like_count,
                     news_comments.created,
                     news_comments.disable,
                     users.is_company,
                     news_comments.user_id
                     FROM news_comments 
                     JOIN users ON (news_comments.user_id = users.id)
                     WHERE users.is_company = 0 AND users.disable = 0 AND news_comments.disable= 0
                     AND news_comments.news_feed_id = {$info['news_feed_id']}
                    )
                     UNION
                    (
                     SELECT news_comments.id, 
                     news_comments.news_feed_id,
                     companies.id as company_id,
                     IFNULL(IF(companies.thumbnail_img='',NULL,companies.thumbnail_img),'" . \Config::get('mobile_no_image_company') . "') AS thumbnail_img,
                     companies.name, 
                     news_comments.comment,
                     news_comments.comment_short,
                     news_comments.like_count, 
                     news_comments.created,
                     news_comments.disable,
                     users.is_company,
                     news_comments.user_id
                    FROM news_comments, companies, user_recruiters, users
                    WHERE 
                    news_comments.user_id = user_recruiters.user_id AND user_recruiters.user_id = users.id
                    AND news_comments.news_feed_id = {$info['news_feed_id']} AND
                    user_recruiters.company_id NOT IN
                    (SELECT follow_companies.company_id FROM follow_companies where follow_companies.user_id = {$user_id})
                    AND companies.id = user_recruiters.company_id AND companies.disable = 0 AND user_recruiters.disable = 0
                    AND news_comments.disable = 0
                    ))
                    AS news_comments
                    LEFT JOIN
                    (SELECT * FROM news_comment_likes WHERE user_id= {$user_id} and disable = 0) AS news_comment_likes 
                    ON (news_comment_likes.news_comment_id = news_comments.id)                    
                    ORDER BY news_comments.like_count DESC LIMIT {$offset},{$limit}";

        $query = DB::query($sql);
        $data = $query->execute()->as_array();
        return !empty($data) ? $data : array();
    }

    /**
     * Update like count for news feed.
     *
     * @author Le Tuan Tu
     * @param array $param Input data.
     * @return bool Returns the array.
     */
    public static function update_like_count($param) {
        $likes = Model_News_Feed_Like::get_list(array(
                'news_feed_id' => $param['news_feed_id'],
                'disable' => '0'
        ));
        $newsFeed = self::find($param['news_feed_id']);
        $newsFeed->set('likes_count', $likes[0]);
        if (!$newsFeed->save()) {
            return false;
        }
        return true;
    }

    /**
     * update favorite count for news feed
     *
     * @author Le Tuan Tu
     * @param array $param Input data.
     * @return bool Returns the boolean.
     */
    public static function update_favorite_count($param) {
        $cnt = Model_News_Feed_Favorite::count_by_news_feeds_id($param['news_feed_id']);
        $newsFeed = self::find($param['news_feed_id']);
        $newsFeed->set('id', $param['news_feed_id']);
        $newsFeed->set('favorite_count', $cnt);
        if (!$newsFeed->update()) {
            return false;
        }
        return true;
    }

    /**
     * Update comment count for news feed.
     *
     * @author Le Tuan Tu
     * @param array $param Input data.
     * @return bool Returns the boolean.
     */
    public static function update_comment_count($param) {
        $cnt = Model_News_Comment::count_by_news_feeds_id($param['news_feed_id']);
        $newsFeed = self::find($param['news_feed_id']);
        $newsFeed->set('id', $param['news_feed_id']);
        $newsFeed->set('comments_count', $cnt);
        if (!$newsFeed->update()) {
            return false;
        }
        return true;
    }

    /**
     * Function to get detail a News_Feed.
     *
     * @author diennvt
     * @param array $param Input data.
     * @return array Returns the array.
     */
    public static function get_detail($id) {
        $query = DB::select(
                'news_feeds.id', 
                'news_feeds.news_site_id', 
                'news_feeds.title', 
                'news_feeds.short_content', 
                'news_feeds.detail_url',
                'news_feeds.likes_count',
                'news_feeds.short_url', 
                'news_feeds.comments_count', 
                DB::expr("IFNULL(IF(news_feeds.image_url='',NULL,news_feeds.image_url),IFNULL(IF(news_sites.thumbnail_img='',NULL,news_sites.thumbnail_img), '" . \Config::get('mobile_no_image_other') . "')) AS image_url"), 
                'news_feeds.distribution_date', 
                'news_feeds.favorite_count',
                'news_feeds.disable',
                'news_feeds.created', 
                'news_feeds.updated', 
                //array('news_sites.name', 'site_name')
                DB::expr("IF(news_feeds.news_site_id=0,news_feeds.news_site_name,news_sites.name) AS site_name")
            )
            ->from('news_feeds')
            ->join('news_sites','LEFT')
            ->on('news_feeds.news_site_id', '=', 'news_sites.id')
            ->where('news_feeds.id', $id)
            ->limit(1)
            ->offset(0);
        $data = $query->execute()->as_array();
        $data = !empty($data[0]) ? $data[0] : array();
        if (!empty($data)) {
            $tagArray = Model_News_Feed_Tag::get_all(array('news_feed_id' => $id));
            $data['tags'] = Arr::filter($tagArray, 'news_feed_id', $id);
        } else {
            $data = array();
            static::errorNotExist('id', $id);
        }
        return $data;
    }

    /**
     * Function to add or update a News_Feed.
     *
     * @author tuancd
     * @param array $param Input data.
     * @return int | bool | string Returns the integer or the boolean or the string.
     */
    public static function add_update_for_batch($param) {

        //check detail_url if existing      
        $detail_url = !empty($param['detail_url']) ? $param['detail_url'] : '';
        $md5_detail = md5($detail_url);
        if (empty($detail_url)) {
            return 'Invalid detail_url';
        }

        $options['where'] = array(
            'detail_url_md5' => $md5_detail
        );
        $data = \Model_News_Feed_Import_Log::find('first', $options);
        // If exists detail_url => return true
        if (!empty($data)) {
            return true;
        }
        // Action to Insert New_feed_import_log
        $newsfeed_importLogid = \Model_News_Feed_Import_Log::add_update(array(
                'detail_url' => $detail_url,
                'detail_url_md5' => $md5_detail,
        ));
        if ($newsfeed_importLogid > 0) {
            $newsfeed = new self();
            // set information for subcategory if having
            $_shorURL = "";
            if (!empty($param['detail_url'])) {
                $_shorURL = \Lib\Util::getShortUrl($detail_url);
                if (!empty($_shorURL)) {
                    $newsfeed->set('short_url', $_shorURL);
                }
                $newsfeed->set('detail_url', $detail_url);
                // Get Image for feed
                $str = @file_get_contents($detail_url);
                if ($str !== FALSE) {
                    preg_match_all('~charset=\"{0,1}([-a-z0-9_]+)\"{0,1}~i', $str, $charset);
                    $encoding = $charset[1];
                    //$encoding = !empty($encoding) && is_string($encoding) ? $encoding : "";
                    if (!empty($encoding) && is_string($encoding) && strtolower($encoding) !== "utf-8" ) {
                        $str = mb_convert_encoding($str, 'utf-8', $encoding);
                    }
                    $str = html_by_tag($str, "<head", "</head>");
                    $html = str_get_html($str);
                    $image_url = "";
                    foreach ($html->find('meta[property=og:image]') as $element) {
                        $image_url = !empty($element->attr['content']) ? $element->attr['content'] : "";
                        break;
                    }
                    if (!\Lib\Util::url_exists($image_url))
                        $image_url = "";
                    $newsfeed->set('image_url', $image_url);
                }
            }

            if (!empty($param['news_site_id'])) {
                $newsfeed->set('news_site_id', $param['news_site_id']);
            }

            if (!empty($param['title'])) {
                $title = $param['title'];
                $title = \Lib\Str::truncate($title, 252);
                $newsfeed->set('title', $title);
                if (\Lib\Str::startsWith(strtoupper($title), "PR")) {
                    //$newsfeed->set(array('disable' => 1));
                    $newsfeed->disable = 1;
                }
            }

            if (!empty($param['short_content'])) {
                $description = $param['short_content'];
                $description = \Lib\Str::truncate($description, 252);
                $newsfeed->set('short_content', $description);
            }

            if (!empty($param['distribution_date'])) {
                $newsfeed->set('distribution_date', $param['distribution_date']);
            }

            $newsfeed->set('likes_count', 0);
            $newsfeed->set('comments_count', 0);           
            $newsfeed->set('favorite_count', 0);

            //check id for adding new or updating
            if ($newsfeed->create()) {
                if (empty($newsfeed->id)) {
                    $newsfeed->id = self::cached_object($newsfeed)->_original['id'];
                }
                if (!empty($newsfeed->id)) {
                    // update New_feed_import_log
                    \Model_News_Feed_Import_Log::add_update(array(
                        'id' => $newsfeed_importLogid,
                        'news_feed_id' => $newsfeed->id,
                        'status' => !empty($_shorURL) ? 1 : 2
                    ));
                    // Update News_site_rss
                    \Model_News_Sites_Rss::add_update(array(
                        'news_site_id' => $param['news_site_id'],
                        'id' => $param['id']
                    ));
                    return $newsfeed->id;
                } else {
                    return 0;
                }
            }
        }
        return false;
    }

    /**
     * Get news list detail for tada copy relation (API 1).
     *
     * @author Le Tuan Tu
     * @param array $param Input data.
     * @return array Returns array(total, data).
     */
    public static function get_news_list_detail_for_tada_copy($param) {
        $time_to = strtotime($param['list_date']);
        $time_from = $time_to - \Config::get('number_day_of_tada_copy_api');
        $sql = "
            SELECT    news_feeds.id                                AS news_feed_id,
                      news_feeds.image_url                         AS image,
                      news_feeds.title                             AS headline,
                      news_sites.thumbnail_img                     AS icon,
                      news_feeds.detail_url                        AS url,
                      IF(ISNULL(A.news_feed_id), 0, A.like_count)  AS nice,
                      FROM_UNIXTIME(news_feeds.created)            AS created,
                      news_sites.name                              AS media_name
            FROM      news_feeds
            LEFT JOIN news_sites
            ON        news_feeds.news_site_id = news_sites.id
            JOIN
                      (
                           SELECT   news_feed_id,
                                    COUNT(id) AS like_count
                           FROM     news_comment_likes
                           WHERE    disable = 0
                           AND      DATE(FROM_UNIXTIME(updated)) <= DATE(FROM_UNIXTIME({$time_to}))
                           AND      DATE(FROM_UNIXTIME(updated)) > DATE(FROM_UNIXTIME({$time_from}))
                           GROUP BY news_feed_id) A
            ON        news_feeds.id = A.news_feed_id
            ORDER BY  nice DESC
        ";
        $query = DB::query($sql);
        $data = $query->execute()->as_array();
        $total = !empty($data) ? DB::count_last_query() : 0;
        if ($data) {
            foreach ($data as &$d) {
                $share = self::get_detail_company_for_tada_copy($d);
                $d['comment'] = array(
                    'name' => $share[0]['name'],
                    'icon' => $share[0]['icon'],
                    'comment' => $share[0]['comment'],
                    'nice' => $share[0]['nice'],
                );
                unset($share[0]);
                $d['share'] = array();
                foreach ($share as $item) {
                    $d['share'][] = array(
                        'name' => $item['name'],
                        'icon' => $item['icon'],
                    );
                }
            }

            $param['called_api_name'] = \Config::get('tadacopy_news_list');
            if (!\Model_External_Relation_Log::insert($param)) {
                return false;
            }

            // set image url
            $data = \Model_Setting::set_image_url($data, array('image'));
        }
        return array($total, $data);
    }

    /**
     * Get detail company for tada copy API (API 1).
     *
     * @author Le Tuan Tu
     * @param array $param Input data.
     * @return array Returns the array.
     */
    public static function get_detail_company_for_tada_copy($param) {
        $sql = "
            SELECT DISTINCT companies.name           AS name,
                            companies.thumbnail_img  AS icon,
                            news_comments.comment    AS comment,
                            news_comments.like_count AS nice
            FROM            news_comments
            JOIN            companies
            ON              companies.id = news_comments.company_id
            WHERE           news_comments.news_feed_id = {$param['news_feed_id']}
            AND             news_comments.disable = 0
            ORDER BY        news_comments.like_count DESC
            LIMIT           5
        ";
        $query = DB::query($sql);
        $data = $query->execute()->as_array();

        return !empty($data) ? $data : array();
    }

    /**
     * Get news feed favorites and more info for API get user profile for mobile.
     *
     * @author Le Tuan Tu
     * @param array $param Input data.
     * @return array Returns array(total, data).
     */
    public static function get_news_feed_for_user_mobile($param) {
        // set page and limit, get default from Config if not set param
        $page = !empty($param['page']) ? $param['page'] : \Config::get('page_default');
        $limit = !empty($param['limit']) ? $param['limit'] : \Config::get('limit_default');
        $offset = ($page - 1) * $limit;
        if (empty($param['user_id'])) {
            $param['user_id'] = 0;
        }
        $sql = "
            SELECT MAX(news_feed_id) AS news_feed_id,
                   news_feed_title AS title,
                   news_feed_detail_url AS detail_url,
                   news_feed_created,
                   news_feed_image_url AS image_url,
                   site_name,
                   news_feed_distribution_date AS distribution_date,
                   is_favorite
            FROM
                ( SELECT news_comments.*,
                         companies.name AS company_name,
                         companies.kana AS company_kana,
                         IFNULL(IF(companies.thumbnail_img='',NULL,companies.thumbnail_img),'" . \Config::get('mobile_no_image_company') . "') AS company_thumbnail_img,
                         news_feed_title,
                         news_feed_detail_url,
                         news_feed_created,
                         news_feed_image_url,
                         news_feed_distribution_date,
                         site_name,
                         IF(ISNULL(news_feed_favorites.news_feed_id),0,1) AS is_favorite
                 FROM news_comments
                 JOIN companies ON news_comments.company_id = companies.id
                 JOIN
                     (SELECT news_feed_favorites.user_id,
                             news_feed_favorites.news_feed_id,
                             news_feeds.title AS news_feed_title,
                             news_feeds.detail_url AS news_feed_detail_url,
                             IFNULL(IF(news_feeds.image_url='',NULL,news_feeds.image_url),IFNULL(IF(news_sites.thumbnail_img='',NULL,news_sites.thumbnail_img), '" . \Config::get('mobile_no_image_other') . "')) AS news_feed_image_url,
                             news_feeds.distribution_date AS news_feed_distribution_date,
                             news_sites.name AS site_name,
                             news_feeds.created AS news_feed_created
                      FROM news_feeds
                      JOIN news_feed_favorites ON news_feeds.id = news_feed_favorites.news_feed_id
                      JOIN news_sites ON news_feeds.news_site_id = news_sites.id
                      WHERE news_feeds.disable = 0
                          AND news_feed_favorites.disable = 0
                          AND user_id = {$param['id']}) AS news_feeds ON news_comments.news_feed_id = news_feeds.news_feed_id
                 LEFT JOIN
                     (SELECT *
                      FROM news_feed_favorites
                      WHERE disable = 0
                          AND user_id = {$param['user_id']}) news_feed_favorites ON news_comments.news_feed_id = news_feed_favorites.news_feed_id
                 WHERE news_comments.disable = 0
                 ORDER BY news_feed_created DESC, news_comments.like_count DESC, news_comments.created DESC ) news_feeds
            GROUP BY news_feed_id
            LIMIT {$offset},{$limit}
        ";
        $query = DB::query($sql);
        $data = $query->execute()->as_array();
        $total = !empty($data) ? DB::count_last_query() : 0;
        if (!empty($data)) {
            $user_id = !empty($param['user_id']) ? $param['user_id'] : 0;
            $newsFeedIds = \Lib\Arr::field($data, 'news_feed_id', true);
            if ($newsFeedIds) {
                $follow_comment_array = self::mobile_get_following_comments_2($user_id, $newsFeedIds);
                $other_comment_array = self::mobile_get_others_comments_2($user_id, $newsFeedIds);
                foreach ($data as $key => $info) {
                    $follow_comments = \Lib\Arr::filter($follow_comment_array, 'news_feed_id', $info['news_feed_id']);
                    $other_comments = \Lib\Arr::filter($other_comment_array, 'news_feed_id', $info['news_feed_id']);
                    $all_comments = array_merge($follow_comments, $other_comments);
                    //check if there is the same user/company comment, then just display 1
                    $unique_comments = array();
                    foreach ($all_comments as $comment) {
                        if (\Lib\Arr::search($unique_comments, 'company_id', $comment['company_id']) === false) {
                            $unique_comments[] = $comment;
                        }
                    }
                    //get some best comments from all
                    $other_user_comment_count = count($unique_comments) - self::COMMENTS_NUM;
                    $data[$key]['other_user_comment_count'] = ($other_user_comment_count > 0) ? $other_user_comment_count : 0;
                    $data[$key]['best_comments'] = array_slice($unique_comments, 0, self::COMMENTS_NUM);
                }
            }
        }

        return array($total, $data);
    }

    /**
     * Get news detail for tada copy (API 2).
     *
     * @author Le Tuan Tu
     * @param array $param Input data.
     * @return array Returns the array.
     *
     */
    public static function get_news_detail_for_tada_copy($param)
    {
        $query = DB::select(
            'id',
            'image_url',
            'title',
            array('title', 'headline'),
            array('short_content', 'content'),
            array('detail_url', 'url')
        )
            ->from('news_feeds')
            ->where('id', '=', $param['feed_id'])
            ->where(self::$_table_name . '.disable', '=', '0');

        $data = $query->execute()->as_array();
        if (!empty($data[0])) {
            $query = DB::select(
                array('news_comments.company_id', 'id'),
                array('companies.name', 'name'),
                array('news_comments.comment_short', 'text'),
                array('news_comments.like_count', 'nice'),
                DB::expr("
                    IFNULL(IF(thumbnail_img='',NULL,thumbnail_img),'" . \Config::get('no_image_company') . "') AS icon
                "),
                DB::expr("
                    FROM_UNIXTIME(news_comments.created) AS created
                "),
                DB::expr("
                    IFNULL(
                        (SELECT COUNT(news_comment_id)
                         FROM news_comment_likes
                         WHERE disable = 0 AND news_comment_id = news_comments.id AND user_id = {$param['user_id']}
                         GROUP BY user_id), 0) AS my_nice
                ")
            )
                ->from('news_comments')
                ->join('companies')
                ->on('news_comments.company_id', '=', 'companies.id')
                ->where('news_feed_id', '=', $param['feed_id'])
                ->where('news_comments.disable', '=', '0')
                ->order_by('news_comments.like_count', 'DESC')
                ->limit(5);
            $data[0]['comments'] = $query->execute()->as_array();
        }

        $param['called_api_name'] = \Config::get('tadacopy_news_detail');
        if (!\Model_External_Relation_Log::insert($param)) {
            return false;
        }

        // set image url
        $data = \Model_Setting::set_image_url($data, array('image_url'));

        return !empty($data[0]) ? $data[0] : array();
    }

    /**
     * Get feed count from news feed.
     *
     * @author diennvt
     * @param int $site_ids Input site_id.
     * @return array Returns the array.
     */
    public static function get_feed_count($site_ids) {
        $query = DB::select(
                self::$_table_name . ".news_site_id", DB::expr("COUNT(" . self::$_table_name . ".id) AS feed_count")
            )
            ->from(self::$_table_name)
            ->where(self::$_table_name . ".disable", 0)
            ->group_by(self::$_table_name . ".news_site_id");

        if (!empty($site_ids)) {
            $query->where(DB::expr("EXISTS ( SELECT id
                                            FROM news_sites
                                            WHERE news_feeds.news_site_id = news_sites.id  AND disable = 0 AND news_feeds.news_site_id IN ({$site_ids}))"));
        }

        $data = $query->execute()->as_array();
        return !empty($data) ? $data : array();
    }

    /**
     * Update any counter for news feed, news comment.
     *
     * @author Le Tuan Tu
     * @param array $param Input data.
     * @return bool Returns the boolean.
     */
    public static function update_counter($param) {
        static::update_news_feed_counter($param);
        Model_News_Comment::update_counter_by_news_feeds($param);

        return true;
    }

    /**
     * Update any counter for news feed.
     *
     * @author Le Tuan Tu
     * @param array $param Input data.
     * @return bool Returns the boolean.
     *
     */
    public static function update_news_feed_counter($param) {
        $idArray = explode(',', $param['news_feed_id']);
        foreach ($idArray as $id) {
            $sql = "
                UPDATE news_feeds
                SET    favorite_count = (SELECT COUNT(*)
                                         FROM   news_feed_favorites
                                         WHERE  news_feed_id = {$id}
                                                AND disable = 0),
                       likes_count = (SELECT COUNT(*)
                                      FROM   news_feed_likes
                                      WHERE  news_feed_id = {$id}
                                             AND disable = 0),
                       comments_count = (SELECT COUNT(*)
                                         FROM   news_comments
                                         WHERE  news_feed_id = {$id}
                                                AND disable = 0)
                WHERE  id = {$id}
                       AND disable = 0
            ";
            DB::query($sql)->execute();
        }

        return true;
    }

    /**
     * Function to get sub information of News_Feeds.
     *
     * @author diennvt
     * @param array $param Input data.
     * @return array Returns the array.
     */
    public static function mobile_get_best_comments_2($user_id, $newsFeedIds = null) {
        $follow_comments = self::mobile_get_following_comments_2($user_id, $newsFeedIds);
        $other_comments = self::mobile_get_others_comments_2($user_id, $newsFeedIds);
        $all_comments = array_merge($follow_comments, $other_comments);
        //check if there is the same user/company comment, then just display 1


        $count = 0;
        $unique_comments = array();
        foreach ($all_comments as $comment) {
            if (empty($unique_comments)) {
                $unique_comments[] = $comment;
                $count = $count + 1;
                continue;
            }
            $isExist = false;
            foreach ($unique_comments as $u_comment) {
                if ($comment['user_id'] == $u_comment['user_id']) {
                    $isExist = true;
                    break;
                }
            }
            if ($isExist == true) {
                continue;
            } else {
                $unique_comments[] = $comment;
                $count = $count + 1;
            }
        }
        //get some best comments from all
        $other_user_comment_count = count($unique_comments) - self::COMMENTS_NUM;
        $data['other_user_comment_count'] = ($other_user_comment_count > 0) ? $other_user_comment_count : 0;
        $data['best_comments'] = array_slice($unique_comments, 0, self::COMMENTS_NUM);
        return !empty($data) ? $data : array();
    }

    /**
     * Function to get sub detail information of News_Feeds.
     *
     * @author diennvt
     * @param array $param Input data.
     * @return array Returns the array.
     */
    public static function mobile_get_following_comments_2($user_id, $newsFeedIds, $page = 1, $limit = 10) 
    { 
        $sql = "
        SELECT  DISTINCT A.id,
                A.news_feed_id,
                companies.id as company_id,
                IFNULL(IF(companies.thumbnail_img='',NULL,companies.thumbnail_img),'" . \Config::get('mobile_no_image_company') . "') AS thumbnail_img,
                companies.name, A.comment,
                A.comment_short, A.like_count,
                A.created,
                A.disable,
                users.is_company,
                IFNULL(clap_num, 0) AS clap_num
        FROM                    
            news_comments A
            JOIN follow_companies ON (A.company_id = follow_companies.company_id AND follow_companies.user_id={$user_id})
            JOIN user_recruiters ON (A.user_id = user_recruiters.user_id)
            JOIN users ON (user_recruiters.user_id = users.id)
            JOIN companies ON (user_recruiters.company_id = companies.id)
            LEFT JOIN (
                SELECT news_comment_id, COUNT(id) AS clap_num 
                FROM news_comment_likes 
                WHERE user_id = {$user_id} AND disable = 0
                GROUP BY news_comment_id
            ) news_comment_likes
            ON (news_comment_likes.news_comment_id = A.id)                        
            WHERE   A.news_feed_id IN ({$newsFeedIds})
                    AND A.disable = 0
                    AND companies.disable = 0
                    AND user_recruiters.disable = 0
            ORDER BY A.like_count DESC";
        $query = DB::query($sql);
        $data = $query->execute()->as_array();
        return !empty($data) ? $data : array();
    }

    /**
     * Function to get sub detail information of News_Feeds.
     *
     * @author diennvt
     * @param array $param Input data.
     * @return array Return the array.
     */
    public static function mobile_get_others_comments_2($user_id, $newsFeedIds, $page = 1, $limit = 10) 
    {     
        $sql = "
        SELECT  DISTINCT news_comments.* ,
                IFNULL(clap_num, 0) AS clap_num
        FROM
        (
            (
                SELECT  news_comments.id,
                        news_comments.news_feed_id,
                        '0' AS company_id,
                        IFNULL(IF(users.image_url='',NULL,users.image_url),'" . \Config::get('mobile_no_image_user') . "') AS thumbnail_img,
                        users.name,
                        news_comments.comment,
                        news_comments.comment_short,
                        news_comments.like_count,
                        news_comments.created,
                        news_comments.disable,
                        users.is_company,
                        news_comments.user_id
                FROM    news_comments
                        JOIN users ON (news_comments.user_id = users.id)
                WHERE   users.is_company = 0 
                        AND users.disable = 0 
                        AND news_comments.disable = 0
                        AND news_comments.news_feed_id IN ({$newsFeedIds})
            )
            UNION
            (
                SELECT  news_comments.id,
                        news_comments.news_feed_id,
                        companies.id as company_id,
                        IFNULL(IF(companies.thumbnail_img='',NULL,companies.thumbnail_img),'" . \Config::get('mobile_no_image_company') . "') AS thumbnail_img,
                        companies.name,
                        news_comments.comment,
                        news_comments.comment_short,
                        news_comments.like_count,
                        news_comments.created,
                        news_comments.disable,
                        users.is_company,
                        news_comments.user_id
               FROM     news_comments, companies, user_recruiters, users
               WHERE    news_comments.user_id = user_recruiters.user_id 
                        AND user_recruiters.user_id = users.id
                        AND news_comments.news_feed_id IN ({$newsFeedIds})                         
                        AND user_recruiters.company_id NOT IN
                        (   SELECT follow_companies.company_id 
                            FROM follow_companies 
                            WHERE follow_companies.user_id = {$user_id}
                        )
               AND companies.id = user_recruiters.company_id
               AND companies.disable = 0 
               AND user_recruiters.disable = 0
               AND news_comments.disable = 0
            )
        ) 
        news_comments
        LEFT JOIN
            (   SELECT  news_comment_id, id as news_comment_likes_id, COUNT(id) AS clap_num 
                FROM    news_comment_likes 
                WHERE   user_id = {$user_id}
                        AND disable = 0
                GROUP BY news_comment_id
            ) news_comment_likes ON (news_comment_likes.news_comment_id = news_comments.id)
        ORDER BY news_comments.like_count DESC";
        $query = DB::query($sql);
        $data = $query->execute()->as_array();
        return !empty($data) ? $data : array();
    }

}

